                  R3       
+--------------+   /      R1 /                              +--------------+
|          Pos +--o o---+---o o-----------------------+-----+ Pos          |
|              |        |                       R2 _  |     |              |
|              |        |                  +------o o-+     |              |
|     12V      |        |        R1 _      |                |              +---+
|   Battery    |        +----------o o-----+-----------+    |    12VDC     |   |
|              |                           |           |    |    Motor     +---+
|              |                           |           |    |              |
|              |        +------------------+           |    |              |
|              |        |    /                         |    |              |
|          Neg +--------+---o o------------------------+----+ Neg          |
+--------------+            R2                              +--------------+


           Truth Table
               
         R1 R2 R3 Motor              /
        ------------------         -o o-  Relay Normally open
         1| 1 |1 | 1 CW              _
         0| 0 |0 | 0 off           -o o- Relay Normally Closed
         0| 0 |1 | 0 off
         0| 1 |1 | 1 off          
         1| 0 |0 | 0 CCW
         1| 1 |0 | 0 off
