<?xml version="1.0" encoding="UTF-8" standalone="no"?>
<!-- Created with Inkscape (http://www.inkscape.org/) -->

<svg
   width="5.9448819in"
   height="2.5590551in"
   viewBox="0 0 151 64.999999"
   version="1.1"
   id="svg5"
   inkscape:version="1.1.2 (76b9e6a115, 2022-02-25)"
   sodipodi:docname="12V7Ahbreadboard.svg"
   xmlns:inkscape="http://www.inkscape.org/namespaces/inkscape"
   xmlns:sodipodi="http://sodipodi.sourceforge.net/DTD/sodipodi-0.dtd"
   xmlns:xlink="http://www.w3.org/1999/xlink"
   xmlns="http://www.w3.org/2000/svg"
   xmlns:svg="http://www.w3.org/2000/svg">
  <sodipodi:namedview
     id="namedview7"
     pagecolor="#ffffff"
     bordercolor="#666666"
     borderopacity="1.0"
     inkscape:pageshadow="2"
     inkscape:pageopacity="0.0"
     inkscape:pagecheckerboard="0"
     inkscape:document-units="mm"
     showgrid="false"
     inkscape:zoom="1.4823793"
     inkscape:cx="258.70572"
     inkscape:cy="155.15597"
     inkscape:window-width="1920"
     inkscape:window-height="1010"
     inkscape:window-x="0"
     inkscape:window-y="0"
     inkscape:window-maximized="1"
     inkscape:current-layer="layer1"
     units="in"
     inkscape:snap-global="true" />
  <defs
     id="defs2">
    <inkscape:path-effect
       effect="fillet_chamfer"
       id="path-effect1780"
       is_visible="true"
       lpeversion="1"
       satellites_param="F,0,0,1,0,2.1166667,0,1 @ F,0,0,1,0,2.1166667,0,1 @ F,0,0,1,0,2.1166667,0,1 @ F,0,0,1,0,2.1166667,0,1"
       unit="px"
       method="auto"
       mode="F"
       radius="8"
       chamfer_steps="1"
       flexible="false"
       use_knot_distance="true"
       apply_no_radius="true"
       apply_with_radius="true"
       only_selected="false"
       hide_knots="false" />
    <inkscape:path-effect
       effect="fillet_chamfer"
       id="path-effect3676"
       is_visible="true"
       lpeversion="1"
       satellites_param="F,0,0,1,0,3.96875,0,1 @ F,0,0,1,0,3.96875,0,1 @ F,0,0,1,0,3.96875,0,1 @ F,0,0,1,0,3.96875,0,1"
       unit="px"
       method="auto"
       mode="F"
       radius="15"
       chamfer_steps="1"
       flexible="false"
       use_knot_distance="true"
       apply_no_radius="true"
       apply_with_radius="true"
       only_selected="false"
       hide_knots="false" />
    <marker
       style="overflow:visible"
       id="Arrow1Lstart"
       refX="0"
       refY="0"
       orient="auto"
       inkscape:stockid="Arrow1Lstart"
       inkscape:isstock="true">
      <path
         transform="matrix(0.8,0,0,0.8,10,0)"
         style="fill:context-stroke;fill-rule:evenodd;stroke:context-stroke;stroke-width:1pt"
         d="M 0,0 5,-5 -12.5,0 5,5 Z"
         id="path1620" />
    </marker>
  </defs>
  <g
     inkscape:groupmode="layer"
     id="layer2"
     inkscape:label="background"
     sodipodi:insensitive="true"
     style="display:none"
     transform="translate(-36.171514,-20.400381)">
    <image
       width="677.33331"
       height="381"
       preserveAspectRatio="none"
       xlink:href="data:image/png;base64,iVBORw0KGgoAAAANSUhEUgAAA8AAAAIcCAIAAAC2P1AsAAAACXBIWXMAAAsTAAALEwEAmpwYAAAA RXRFWHRGaWxlAC9ob21lL2RhdmUvRHJvcGJveC9NeSBCbGVuZGVyIEZpbGVzLzEyVjdBaC9Gcml0 emluZyAxMnY3QWguYmxlbmQ3JqSNAAAAGHRFWHREYXRlADIwMjIvMDQvMDEgMTI6MTI6MjNCpUFj AAAAEHRFWHRUaW1lADAwOjAwOjA2OjIzFZB6sAAAAAl0RVh0RnJhbWUAMTY3f6p9pgAAABF0RVh0 Q2FtZXJhAENhbWVyYS4wMDES3ll/AAAAC3RFWHRTY2VuZQBTY2VuZeUhXZYAAAATdEVYdFJlbmRl clRpbWUAMDA6MDEuMTl4TLDBAAAgAElEQVR42u3dy69sW3Yn5Dli73Nv3sy0r+1SGj/SFKUqlQSS KWwobDegQYtGIdHgT0RISG4gkFt0SghLZTCiYRAWNi4bl3EmWUn6kc7Me+/ZMWisd8SKx4rXXnPv 76v0ObEj1nNG2vXb44w1Z2RmAQAAzrMxBAAAcD4BGgAAFhCgAQBgAQEaAAAWEKABAGABARoAABYQ oAEAYAEBGgAAFhCgAQBgAQEaAAAWEKABAGABARoAABYQoAEAYAEBGgAAFhCgAQBgAQEaAAAWEKAB AGABARoAABYQoAEAYAEBGgAAFhCgAQBgAQEaAAAWEKABAGABARoAABYQoAEAYAEBGgAAFhCgAQBg AQEaAAAWEKABAGABARoAABYQoAEAYAEBGgAAFhCgAQBgAQEaAAAWEKABAGABARoAABYQoAEAYAEB GgAAFhCgAQBgAQEaAAAWEKABAGABARoAABYQoAEAYAEBGgAAFng2BMD6ffy4/f4PfrzdllLywCa7 72fmyW06Mflr+CEObXk7+UojmkvPn/e632agY/xZjIb5p7756Te/8Yn/FQBWRYAGKvC3f/flf/nf /Msf/M1XpcRcVi6jN5ufMnNbhgydk7/6H6KU/o8oQ3KLLtV1MTqGTDdK24fidM6+PPre3Od5OrXm /vHy1OkysxuZPLZpHrrU6Ifj2PVlnnnPEZuI/X8Ojczt0yb/i//03/y1X/0F/ysArIoADdThy6+2 P/kyN5voEm9Eibng1Ylj9eI+eEaJcbbblpwUQPvtdhJ4ZnMBZ1783erM40JylojJLxjtxbe3WSK6 XzUy8yVze+lJYxNPJU51AO6MTZOnI84fnI8fvyz55Xb7WkV6gIMEaKAOuVMQzSxRsmQbDc87Rv9H lJIlSsn2CMOho896c0fo4mlEycyuRn1SnLimi8X4frqaene2yJKTOnpz2VGixKap0l/4VeQ2IuLo UzS7tfEuvi86UUnpGVgjDxECtcrMkts8GbOajoVsN8w2avZ/ZObo7e7N7sfJgSY/RdykJfrqowy9 JdOhyPFHu5tHlLKJS8/cNIEc7zCZOXT7e86CO84iQANrpAIN1GImS2VmlG3GJnKmxjnfG9w1Y4z+ bnaeNm60ldrhwbbuk+h7P254b3FlKXrUNh2Tqy1tCp30cGeUKJvI7cVnbYvQwzDkydvKUk43Tp/x nQO8PgEaqFtTh25Kqv17o4/HL3cSdQ7vZ5bdVpDMkpExmiKi7ZOI28/FUcol6XK8aw5/ZdcMnU2X yk6q7vtXNiWylO1ljRyZ25Kx3wg+VzNun+osk2cxzxkMgJUSoIF6tXFx1Pwb3QeHZr+YPgyY47k7 spTNeEaOtkshSuQkQ+c9892FMTqi5LYLqJOg3F5z5mjmjLb5u8SmK8BfNPrbbWwi51sBc9QE3f+x 3d94NODHvmWAVRGggXqME3BO3226nGMzCrfTLcZHGX0yfbltI2ibO8vQ/9Cm5lEzxBUV45Pisgy9 m0OnHRQ5mqZjeBjy/KcJc+/BwNxmjOv2h3pmuhHPaP+toB++YaaQ/QcyBWdgtQRooCYzTc6jfJaZ EZtJopuZFXk69dvks21mlNiUaCJzafo6cr9tI0ZV3vs86rY8n8f8e5lNZB4aOdp5O5pJOqJkzD8u uReX91/m9qVsymRKu9w7RCl9h0wzc0o0H02Xr8n53hgpGlgjARqox978zDkUpLfdo3+bI5NDj2ZG Hr1R+r7hxrafq6L5rM2a/Y+7xx8Fv1tPu3bdw4Xt7wD7k/11xeR+Sr6ZaQJLKR+GNw/8KpIRmbF5 Kgeyb45aZiKnXebNVNolSykfY1OaR0InfSYAKyVAA9UZtz6XUnK7ffn+//O//ehv/7L9PLpW5sOL 6bURbT/vjhoMYvJO+8PXv/mtn/+Vf3+zeZqffLp/c27pw8tc1SrSFZu7o0xbViK6bSLLdrzLc27/ s+//X//4+3/SbTpE6P7P9j8RGZsczaU9Ljv3I90tPVN21nCMUv7u05/+b//+f/j950+HjUu52fAB 3IEADdRiSJKjwmj78od//eff/1f//OJDnz8Txc/+wm9+69u/lqWbOO/ExU6m9bjy5vOinXJoMxnN ajcp37dF6Okg5C/+3b/++T/775d8OYtqxkOrx48//0efffvXyvOn5WAjB8C6CNBAZXbT87A6ysUH XLZv95xhnsjQZeeBxt21rZdeZyydQnnyvOXwTOQoQW+jXdakmfZu219W+1DmkrMtyb2TRunou6JF Z6ASAjRQlf303PXvXrJW9EVXkJmbEtlOFF3OWkh8ZqKKS/L0onaO3BmxGJWds12YcTSZXZQSmX0j R0a5fn2XY9c1Xjy9jLvQBWlg9QRooA5dv25XIR1+6ud7iIjMx7XNtrMpT9YoOWenMptKF0xAcV6s jX418m7d8uhHblg7pvS/ikTbyFGmG8Rt5xjZndqjRIl+BfLMErGTn7VBAyu0MQRAdYYQ2JRRh9VA 4uy17i62N3FdXnSMOHOjmN36jAP0UbXvcxk/2Bilnf85R90aXZ6eDunZvx3k6Q1yNz2Pn7vMywcU 4KFUoIHqjB6C21/cY2Eh+pKS9bB+9c7q35OlqnNUVT1wnMkNnTzr/rUfK0X3kbhdjbzdMDabp3Ya vtxm5ja3+TL8PhCbzG2TtmN86jhjhr4TrRd7lewoc88eauAAKiBAA5XJyYrcObuO3t2bOfYy8dNm s81uTcRuk+z7Tc551vCSpwp32jmOHyKenja53b68fMzcNpXnTTw9PT2377RXHduyzbL3EGHEVUvG HEjP3V/NRNsm4QDqoIUDqNI04c3MwnHHXo7JbG/tZbxst13nQ9MFsd1utyW3J8Lx+MLjzNaOXaOd 4sgVbzax3W5fXl62uY14itiULNvty8v249PT07DqSbMceh441fHLO/RLy24Wn1zqeJa9YQ6QkiX1 cgArpQIN1GJ3gY2u3tsGr/2qc7PQ3WwMu7Y+PVlapGwi2gLuEAW3pWubiLYWvdeqMEzSPA2mFxWk YzzXxugs42vYvrw0v3jEU5RtO1z58jFKbDabl48fu0M1CTfnZjY59Vhhv7rhzhVM7m4yFENgz1Ii Mx82oQrAhQRooCL9jGejlJjjron22bjxLnPdHLmz2ZJydbZP33XV44jNZFa4Yd29nVX1xiv/5TBL 86H2juUxOiajUqYv42X7srf5NkuULC8vXz0/f/LSD2zEUISOYe6OYcfZDH1Oy8eRcc5serpjWLRQ iAZWSoAG6hElymbIrzm/hMpejG7Kr5NFrId2i65QfXbzROb2Jfsg2E79tu3msshSIiOGvJyZfdG1 j85DmTZOLOG3MEYfbYnO2Gw2sWluOZ7Kh/islPLx45cv25dt/8hj92vBJOzuxui9xwrPWXglDneY dL+BRCnZfn9xwfKGAI+hBxqoRpunYhMx9P2OJmCbbhyTKe1m5scY/Xh+w0BmZm4zt5N54trFXIbV skuZrJ4dbUjcjvZt0nOcuw5LXJUl2/g+KpxnbrMM09jFMH9d9gl699pmU/WBYdr/Po4O67aZ/aPN 70OMDxEaWCEVaKAifcl206wB2Ca/5rMuou30ZowrzXuF5y6zZcYZ5c4Yh/YcmpxH74w2GP+cw7wW EVFic2503h+AsqAg3S/mnVGylNxu8+Vjlvzw/Ok2X7768ovu3vuRyd2ZQ/anaR5Xo5tu5eY/O1sO Rzg1sP0jg6Pfd6bLFAKsiwANVGEnSEXEplldLw/Pv5F9YB297l8072+32y5DH56vee6DUc9HF5eH 9LxpHiJskmtMUvumq6D3B8rhaGdG6hMxeqaPIzM3sXnJj8Ol57Bw9+bpw3b7Mlo8pdlkv6d5uODh Qb+IYew2mzJqBekuNU7fzlyTernrVCoAVxCggQq1YfMpY1hLe78CPX6nj9HNi4h4enpqPu0z9OQM Rx/tG8md5B2xKSW6yvjw2GC7SmJTe55c6OhpwpMzRs9eyrGCdJ/Ot7HZRG4yX0opH7/6MtspQHKz ed5sNl998ZOZuZp3LmY8w8bwTGQ3a8ZmUzabUkp5eRnVpM+5nXF7TZvcm+AdqYUDWCMBGqhRNzNc PJVNidzE6ImOc8qWm82mCdB9U0dXko7TZ94tFg+Jvf1PRBkeh2uS6riluJ/0ePQEZMxP3XHeYLRH 7X+aBuEspWy3udlsn56etqVsty9NvXmz2Ww2z09PT199/DKnzeTtUOxXnY+OaXl6Kpllu13cnRJl t8s7Szti8jOwPgI0UIku3uYwrXITfJ9ik7HTF7G761B+bhLzZrPZbLr5KIYd5x863DlYic2otjqe 66NpLClZcrOJKE8v2+1k12ae41L6SSea6SxiKLqWy9eyno/R7btRyna7LSWfNpvN01Mzc0hEvHx8 +fjxy+3LSzcZX3fjmZMB2B+Ncbbu681PT216XjiTc5TuW5h2TevgANZJgAbqEpOqbeZo1rUTaatJ zE2A7nPz+MVZp2+rouMpjPpH9UopXUf1ZIHB0ZY5nmliPH1eHpo/+tLhaRdD6Z6ybGPxx5eP3Vlz u33pom+7fknzqGFbLy8HAmzMtLFMqs79ZB1x4EHJmWwdw58xnp9ECwewRgI0UIedpfr6tuL9jufJ XtH3JAxBefTgYEZEE6x7R+a06z4aaqX9wind5zPri7RPE3ZbT1c7ieZJyCijR/FKXjtlXU7WOokS GU27eES2HSTbUkrZNF3GO/cY3YDtTsQxGtbhRfNrTN/3XKYBev4KY/5b6ps2YlMiIjLK1n/zgRUS oIGKxORlTt7cCdDjunJ0NptNE6A/fvzYxOjx04Rl1BLdR+G9BQuHJoNoGh1yJxbv64vNOf9pm6D7 Ho/ritDTUWiXdmlO0XaxlO7nPt43v4psh3XHS19s35sKevzROCt//FialpWml6Mft/0X899q1z7e /qqz5N8FAB5LgAZqFXsNyP3rnTeb3Nw8OBgRLy8v2+325eWl+aj5tJSy3W6bVN13S8+ctHvcrYuN /fTFx1t+8/D7kxaO6Y9Xjk87R0n2i283d9Vm6GEMuzNtuoUTs2mbLuPa/Lio3OTmZtqNfi6Opgjd vN/eXLbdHWVvmsDp2EY7i8pOz0b/DsC6CNBARXI0WcQ0gcVuybnsFZ6fnp76Zwf7fuinp6fn5+fm xyZY9zF6P0PnbPNu2ywRCxY42buvoSY8FKHz4mfoYtxa0t1Ge6F9hu4r312PSXTnzFJKbie/JpS5 2nMToDdRspSXl+GbeH5uJ4Tebtv3dxb9LnPrs5T9yb6LWTiAdRKggXqM18DrK7WTcvPB9NyUn/vX 4yr18/Pz8/NzMzXHx48fm736Puk+RndzSO9M2dGVeK9Jz/O156vboMvoAcIcGqFLRLPQ35Cep5NK N70U7YAfSc/9nyWH95+eyocPbQvHx4/dQXN3wcLJuoZHeqXFZ2CNBGigGk2Imy492Gfl0k9LV+bS c6+MejyaVN0Uofs1VprWjj5D75Si2x7dEkPnbpZbFKGbMnRz3LMmpD5vyLr5sptWk67I3SyEHpMV zNu3ouuZjs1T24wx2/fcB+gyTcPPz0OA7oPxdlvGM/rtx+huBEa/RGSMm84B1kSABmrRTQ5RNlmy W5K770uInZnpGp9//vnnn38+fqeU8vLy8tVXX3311VcR8eHDhw8fPjTBuu/f+Oqrr7773e/+5Cc/ yU4Z9Q/31zLqlYiMsmjm48lNdS+H3wZuOWqjzo3Sd0RH9mfsq9GlDfGllMhuFo7Z9PzhQ/nWt8pz 9/+DNMXmpt784UPbwlFK2W7bJwu327b8/L3vlb/5m2GvyWAOclhZRXoG1kiABmozV+eNA37jN37j 13/915ee4Ysvvvjt3/7tP/mTP+mL0H2MHl1E9yJKN9vyoacJp1NB7x+hOUyzyvctI+O0u2TI0GVY u6WvRpe+BN7NBF3KzFQbzX/+4T/8s3/2z77cbPrJSEq/Rnop+wuAN+ffZP6Df/Evyu/8zs6n5WCE bvuxAdZGgAYqErs/Db0DQ2dz/zoivvGNb3z++edl4XxoX3755SeffNI/aLjt2g9Gc31kGU3aPN9d MlzwOFgPMyjH6HUpcb8Z24YWlOGBwjJK0v2E1OMidERshhaOnf989ln+9E9vn576QzbH35lRe0dm lm98Y3cujpnFVrJMR8Z/74G1EaCBmuytUD10H++Xnzeb2Gw2fRPz+Qn1iy+++PGPf9zMedek574I HUPzRhk/nVdylEq7XBjD8txdb0Tf1zs6zqij+pSzZ7eLyWqI7SKDfS9HGS3ZXbrFVJqnAZvpQIZm 7NkWju9//8OPf/zFN79ZRgukl+E5y8OentoJOnansQOoiQANVCe6FapHk1eMHiJsonPEMNXGovTc bP/y8jKup/Z16Olxsn9Kr5tII0tG2TSV8E2fY6O0D+m1qXq3yeH8Wz87Q08Wmml/6ehn4Zgsh94W nof1W/qOj/n+jVKadufxqPZ16BPj3M8bPRrZ8TBESXEaWD8BGqheHO6BHq8yeL6m9XknQJd2meu9 mez6Amyz+HQT4/sdSzdXXOknANlr4o7+ibqz5vGYyalzsbMrz+d4yr/o0nIZitCllNKv313aXwc2 8wG6v+mXlzItP8c5jz82E3dst7tvlu7XDxEaqIEADVRiFPb23z8UoEvXfbEzgd3Bk0Q0xeZ+zrtG 8852ux0t5h3jJfOifVAu5q465m+mNV1YZCgy54Et5xo+Yn7E2tk29jaKmBTvy9BT0v6i0O0f3VzM uxNCf/3jx+12+5Onp4/jhpDDo/p55nMzRXQ/810fo6P/bgVnoA4CNFCP6Dp4h57j5v04VIT+3d/9 3T/+4z/+pV/6pd/6rd/aydCzK3X/6Z/+6e///u9//PjxRz/6UfMwYv/RUGfduaZS2l6O4cexk7nw ULyOM7Y8ok/bx857ZOa9iLmFVJojf/e7P/M7v/Mzn332xW/+5r/89rfLqSaZT7/88ud/7/fKd75T vve9YYa7oRQdi8YL4NUJ0EBlJl0O3URns7XnUsoPfvCDH/zgB806KWVaKB2/7sP0T37ykz/8wz/s i9bb7baP0U0ROvqgHDsXdeR6X2ucyn5DyIHEnMM4ZJaSkwW3J+m5lCwls/zRH5WIT/7JP2ke0+wb oHdi9PBbyl/+ZfmDPygvL6X/naTP0PIyUBsBGqjUeCXttji9s5xKGc/gdvxYM48bZr+WYROdSylN ni6rLpHm+GUe+XR3m+z/yuxaZWI8ndx4s3ZR7thu+xEbL36+P7Bt9/PO/BtNhg7LpQCVEaCBiuxP q9y+//zJT3/y2S+XnVUCS7vh0/NPtS8zIzYv26fxxx+et9uhH/fD06e/0Mz4ltnPXlcys1lS5ZPP fracP+vcfV2WlQ//OpF9A3SWkn/z/PVvffbLOxu0fzYdzJvNl/E82m/zsn1+fn6Otst5m/nlsO8n n5ev/WLZbss2yzbbgzRR/dOf/aqbAGTvikVrYI0EaKAWMV4/e5jFrpTYbL75rV/Lv/erbdQtbfLt d/z0809KaaeC/rsfv/zz/+mHP/qiXXTvs083//F/8OlPfaPtK3j+2rc//5X/fLfKPKmpbmLTz+zx sHh3JCvn7OZnZeX597Nk+bLEf/Wz//jnfvrfyj40twfNPkZvNuXf+drnv9jt+hff/fL3/uBvNt3k 13//Fz/801/9ejNwP4zn//qn/70f/PK/XSat2cOkfn/6/LXhbkZTaQOskwANvAWbzYeM5z46Z2aU YfW9p+cPzbTQzewTf/W3H//677LJxd/8+ma7/aQ/Tubz0/NnpV+UuuwsTH3vboPdbHwiK+fcVnOH yEPn2mngaFdbyZL5g3j6wdPXcvROX59uXj1tyj+I535EXl7yu//fV/3Rf+abZZv51DXSfGfzyR8/ TVs7uvQc40UZj94uwEoI0EBdps8QTlJW7G01Xuk7hvbl6BcN3ItuMQrJO9F5cobrc/SRrHwk7h4r Kh/YOQ/8PXMN7Sn6Wa+H9DxskZM9hqcGN9Mp/F62k9HanJ63GqAaAjRQk/319bpmjnJ+xbJ7xjD2 2qXL3jx1+88MXhD8LsjKR558zLkoPH3jSGbefSP35+kYp+f+qcE8Y4CfNuVlu2RU4pz3AFZHgAbq MyxO3eqXqh6F6tH2m1Gdedvv2SToaU9G9E0bF4bmQ1k5D29+QVaeSeCnsvLhADxdTLtMqs59mC7D /Bvzu5b9+bG3WfpptDebxcH4RBs3wOsRoIGqzJSg99a/PrUe9su22aitQY8WSynb7ZltzrPND3Mf TbbJI58tzMp5+KKyHH208IwbGPVtZI73zZ3/OWx7XSn66FACvDIBGqhOlOiCXV+L3l0KO0vJbn3t SVdGlBKxicj+IbbJoQ+m5+WJuZwsMJdzo3M5L0v2c2IPM5TsjVt3RbvV+/aP7GbVzshmvccomXuH bv9nu83p0MVolCfn3mwiYjMZ6KGLppvDbpKkhWdgvQRooFZDF/Rm87R5PtJY/OGTYeLnzHj+8Mnz xzasPW3KOLVt88jZdn+K2Y8ObnaOy1Nj3ixwZv/0YLZzbvSTYpfxLIEv0+W7m0VnslvAZrN5Ht/4 0/Mnn3z63E27MR3z7fbjxy93b8YkdsCKCdDAGxDT0vHuLBpPowbcp+f4lZ/ffNEFtg/P5flp51il vFr98/LUeKvA2dWcs69Wt8ulZ4mS2TeaR4npKieffRr/6Nsftl2C/rnPn4YJOiKibLqZ68aPb5ZS Suw/x+hRQmDdBGigLm1LwfBz9+5c6Bo3GLQvPvu0/Oa/O/k/feMe6P4w8V4fYTvUQD5q3BiGd1yw /9bf+/Cf/ObBge1fn5GM5Wdg7QRooDaTCezK0drr/CdPT+edZdwV/O4He1KaP5Cyn56OBd+TNfIs JWbSs2ZoYHUEaKAik2cBc9JtcSydZdk8Pz9nnpgYYrPZbPPj/jlHj969m4Hu6/zTabans2/HdhtP T095amgyo8RTKScn5lB7BuqwMQRAJXJUjIxFSevPvrP98+9sN6f89Q83f/IXB0NexHtLd9GPczdt drN0Y7cEdyl/9H9/9cMfleOj+vT09Fd/+/Sv/t+XE8P3rn5BASqnAg1UIkv3ZFtXfT5dem795Mv8 n//3rz795Gtf/9rBqsFXH8v/+n988b2/ejlynCZHHloy+21pSswls3/VvJcRkaVElozyF9/7+D/+ L3/7H/3Tn+vXSdlbGj3+5m8//t4f/OiHP97Gmc85KkMDqydAA3XIuWbkYXbiU/71X2//u//hR09H /9Xty4/9UcuRgNx+PJ1I+U2ZPKgZXW5uwnPJPkOXUkr5P//8yz/7znebSaDbGex2X5cvvipzq6YD 1EqABqrQTkV84NOzYtnLtlmD8EzH5vQoOwshznxesebWusScmSUiMktEjjN08y8CkeWLr0qU7JZG z1G/RynD6ujnzomtAA2snwAN1KOfD2LyiNvDTh97P09XtH5rSXr6xGCzXmCXodv0PMq7Mfy/SXDe b+sYj5bGZ6BGAjRQh2YdvL23X7dYOcw+PVkH8S0k6b7RvClC94t7l+HHEjsrBvarefcNHOPnD/cm shvP3T279qBiNLBSAjRQi5xOl9aWQVdycXvzJU9fDpdZSaZu83Oz7OB+hm6Hvn2eMLvvY/LH7nqQ 5cBzhgDVEaCBOuSBDuT1ONaTMCTpy8Jj3voyT5xu6N5ou2ViWnjONiC3Mbo7dMTo71ELx+iz0zca o791eACrJEADtegq0H0H9BpT9KmLmqyEveior3UrXRm6z9Al2/CcM9XkPkOXcWYevTr72/ZfeGC9 BGigFrmzGF5jhe0A5z4et95W6clM203rRp+hRz0bXZl4aOEou4Xnspee2z9i97vV1wHUQ4AG6pBZ 2Vp1C+rjq0zSw0oqpZudLnOUj5tqdOl/PBqdSzlvGrt8g7MCAm+QAA3UoJ0vbjRl3DCT3XpLl4tn altReJzMYVe6dJylDOMe469nutD5fnSe/H3+VyZFA2skQAOVmK8/x/r/+f+SVu0LW6XvcOXRP/g4 xOjJRWUeKzlP7mXFv+sALCFAA3XIdiroXk0LcVx1ra9Wlt7Jz5NQfyAVx9zfSx4cnFS11Z+BlRKg gSrsdEDH+IHCWuqa10b+VyhLD/m5XXdx5lJ23r3k29j5ErvVDgFWSoAG6pGjtUrGDbpVZa3bTL73 uDAds+cEeM82hgCowrgEXXuSi9veQoz+U/dXPP0bYK0EaIDXEXc6aN1hWnoGKiBAA7Uar9xR6y3c 9eqjujwtPQN1EKCBetXftdDdxuNGa7VjVtcyOcD75iFCoFLxlgqWj56TbydDr2ogLesNrJ4ADdRh tHxd7CxJ+GYC16tNbb0/fq8XqeVnYP0EaKBOb6oAvXtn5dVv7u6RWkgGKiZAA9UYrdMR8dZ7Zlf3 C8KhxJsX77l7GJkaqIUADdQjzvz4jUTrOhYrjwM/LLtu+RmoiQAN1GxYajqm7/aqD9NrjdFx+efn 3oxUDayUAA1UZCdORZSSJ+LYGylLv2qMjscfT3YG1kyABt6JNc/ctuAe8r6Hf+2vRnAGaiBAA1WI vVwVJfKKOFlrm8ctStHri6hdbh7yc1b3zQDviAAN1GI0CcfcJ9ceeaKOJ/dy2U3V8h3Xe/nAeyFA A29APOqAqwrWUcc0HecMdkQ0i4xHRER3a0I0sFICNFCrviE4HnrOk/KeBz+4W9UxOpr/1w1At7qk Bg5gpQRooGqxvjJlvOJZa4ycUUpp6s7tX9F+rVnpDQFv38YQANVqC5WMRyTqG5NJeu66N6KIz8Ba CdBARaTlBSNV1WCN03NbjvZ1A6slQAM1E7FODU8FIxRlJj2HrxZYLz3QAG/c6hdjjL5xY/h7jd3t AC0BGqiDRHWLMWytaza+fhaOMk3POqCBtRKggWrE3DtS1jUjmau4ilEBunm/fTrUL0zASgnQQNVk rNsMXz70bPvvD+lzG/8AACAASURBVPXn/qVfjYDVEqABuFOSjjO3aldOaR4iLOYnBNZOgAZgcHWS vij4tkt5D9FZhAbWTIAGKtHnq/33/WP/vca7ledueNmJYryQ904jB8AKCdBARSSq1x/3vMcXMXl8 0HcNrJ0ADdRP1nrgEO8Mdt7i2F1wDvkZqIIADdTiyBwOejgeOeAHN8rLz9TXnmPpBQA8ngAN1E18 vulY3nj/PHO/8NUCNRGggRr4p/37j+xjji4SA2+AAA3wrsTaTp/TjyRsYP0EaKAmWXLn3/sz7zIt xNtS0+j4JoH1E6CBqmTJfpnn7N4SunbVPiAx/sYB1kaABuqSo0SVWZr8nO9+0Y23cfux/20DrJAA DdQhYlNim6VEk5tLk66aUnRMl35+D7Hr/fzCIEQDqyNAA9WIEm0LRxedmwboiL0NB28mfr29xDz+ hWevD0dXDrBiAjRQlxz6n9sOjiZ7xYFJHCoN0281P8Z7vGngzRGggZp0zRvZ/tWWokfJ+NhcaOuc lfg9xMY4dq956usGWBkBGqjK0P+cfRNH7Meyc9uhFwa6q7yn+mq8s/sF3hkBGqhPDhXoHP0455LF OSS/a4bqotEzFSFQFQEaqEJEPJV4yWEauyE9R5wKyO9qfo67DP8NtriILwxYIwEaqENsNhFP++l5 6Oo46yjdC8Hs5BDddFOAt0SABirSNmQ0kblNz1ki88IjlXecpOMV9gR4GwRooC596TkvKEDPeA9J OlZ0FIA3QIAGatKVnodpoLP78Voxc6bKRDUH3f9axXOgIgI0UJUu13YV6Cx5n6i75gVYovoTAFRN gAZq0TdA57AQ4WhdwrufeUc+/IwPGuFXOW/3NZpAGqiBAA1UIiIixs0bTf/GrTo4ll/P2xlZ/+UC WESABuoQV31MBUOWpYQvEqiBAA1UTuKqdbxMJQjUSoAGKtY0z4YMfdZQuRKA2xCggfpENG3Qotjp oXIlADcnQAMVid3p5dr5G4Sz/YFyJQD3IkADtRDF6hoi3xfwZgnQQD2imyo4h594u7lZBAdWSoAG KjPk5nedoNcWLq++Hst5A/UQoAEqssKMedtL2s3R/pEBWCEBGqhGlJK7Ved3UrR887lZARqoiQAN VCkimgW9327qWu2dxTu+d4BSBGigCtH9T5ToCtA5+uyt3et7vbCuDC0/A+smQAO1iIs+qv3WXB7A 6gjQQIXewvwbVaTSV77I9AghsEoCNFCF+STXreld91280+uM/ixZRn05yt3A+gnQQB1i+jpPbLKS WF1dGoyHnGH2LJPwLEYDayZAA/VYMIfdzkf5wEusdGQfc4ZTJ1KCBmogQAO1iW7yuuj+6T/O2WdH Xn0Rb2Y0H3D4OPZl+q80UBsBGqhIdFEsy7XZS50zHnLsOHniaB4W9IUA9RCggarEUHcevceSEXzQ scN3BLxVAjRQi7jiU8rjo/P551OABuoiQAN16hs4Ds7qwHiwHnPgiFVdHsB9CNBANWabnkP8OjFm DzhqXH2anGuNBlgpARqoybjunKMHCtkbp0cc2G8vwPskQAOVmKykEiWL6HxqmO514LjPiXRCA7UQ oIGKTKaxa9+QooexuO9R464nAqjHxhAA1YiTb7zbcYn7HTV2X97tS829FwCrpAIN1GIogO5PBf2u B+SOI33Xc/n1B6iVAA1U6/32b9y3WyPuey65GaieAA1U7b2lMdEZ4PUJ0EBVhqpzRCk5Wkzlrd/2 HQ/8kN7yc49pLg5g/QRooA6jh9hytw/6LQeudxSdH3fvANcRoIHK7D5D+GZT1nuOzt3OEdZqAVZI gAZYlbj3seMRJ43bHCOkZ2CNBGigGqP+58lSKm/o/u577DVH57nW5wiLhQOrJEADtYidH7K8mZns VJ0PHTJ0QgMrJEADNdkLzFWnq3jA4Vcdnafrso81D4r6LzywTgI0UInYic9D+KotZ8VjzhAPOnXc Zqf9Ho6o8LsF3gcBGqhItHXJLKVkhWt6x2NOUk90njvCKEmHFg5glQRo4A1YecaKh50nHnQB94nO ezvo4gDWSYAG6lPJo4Px4FOtt905jv88f8xoWjhEaGB9BGigKhVk53j82dbbsxHLjjBthI5QhAZW SYAG6tQn6bWstRGvcs43E50PHER6BtZIgAZqMZPI8pUr0vG6Z66kZ+PiSe4iBGhglQRooFKH5xB+ xHlf+77n1u1bxc3Gza6q+x1BhgZWR4AGKtI+VpZRSmb7xu7M0OXWqXpNAW6+8PzWovNwCPkZWCUB GqjLbs/G3Gobs5krzzv4iu97/hJXkJ7jwiOc+keECGupAKskQAPVuK7fudoc9hZ7Ns7eSHoG1kiA BurQpqkcfszph2/3tvfv8K1F55SUgapsDAFQkUlRMsZ/vbkAFm8tPcfZ04Zk/4dgDaySCjRQiZkZ zV5rIo4H3OzO33M/3fZMl+9xceFZNgZqpQINVOqNdsjOF57jPRSeS3mbvw0Bb48KNFCR6Hqfo0S+ wbAVp17e40wX7hGXnkPhGaieCjRQl9ht5ngbeSxmI3PdhecTNzk27noevQOwTirQAK9tptM5HnGm S/ZQeAYQoIH6VRzNZuZ2jsedbPEeFxeej+4gWgO10cIBVKgv0lb9JOHbSs9xWXoGqJAKNFC1qLJb dm7t63jgyRbucYe2jTfYxg68IwI0UJkuMo8nga4qgc3F03rT8yUdzwIzUDkBGqhHjNenq3Cluph/ Kx51soU73bvwDFArPdBANaLps435ZfrWf/V7P68pPcdN0nMsT88yNVAfFWigSpPe55VnsMNNEStK z0uOcKPCc9zlXgDuT4AGalLfM4Nx3g93ONn1V7jkHHdIz9ZSAdZKCwdQldh/sdYiZezUmt9qer5x 20Ye/RFgDVSggYpFiVxnxDoaTOOeJ7vVRZ53Gh3PwHskQAOVGk9jt77rmvvh4Fu3O9+lO0nPAAto 4QDqE6uNYod7NnY/v/X5Lt0pLkrPS9s2Tp8ly/i3IY0bwKqpQAN1aVbxzmEFlSxrKW3G5K+Dn9/0 ZNftt9rCs1o1sGoCNMDVTkXnO53vuv3W3LaRMjSwZlo4gDpklszJv+yvJWG1y6FcNnfyhee7ej9N zwCXU4EGanGoL/b1UtrZKwmuKT1ffMFLm54fOSwAD6UCDdQimwp0TKaCfsX0HI+NifF66Tnulp4P HNkzhMC6qUADdciZUBWl5MMT9KtMARK32PXi9Lzoohal50O7qE0Dq6YCDdQipz3Qj89YcUF6jtuc 9/pd15KeYyc9z++hBA2smgo0UInMMsxdV6IvSd+9Inw86p2z59WnvnbvB6TnCwrPj5rxD+DWBGig Arlfk4x7lynPyXmPuoCr9l57eo4D37gQDayWAA1UIndaOEZuGbXiVkeOG17GhXvHpSd7xdozQAUE aKAK89m5K0NfGcdi0dtXHPGRe8ftT32T9Cw6A/UToIFazFWgI0aNHE00O6exI678/G5u1TUdF51S egY4iwANVGKUnqN9hHC2D/rV6sZXH+ZNpudlbRtan4EqmMYOqEOWnT6OBY27p8WrBzfpGaAaKtBA JTJzqDfv156nT6mdOUHHHVJdPGynmQM8ID3f/JFByRqojwAN1CqiHJqWYzeV5dybq7mPGx2guvQs OgO1EqCBOuTwEOHyKaAfFdXi1S7rAXNuSM8ALT3QQCXG7RtvwQ2fWIyLTrya9Hz+7CkA6yBAA3WL 1QTquNO2Jw6zlvS8u6XaM/B2CdBAnfrG3+UhciWXfovDrCg9xxXpWfUZqIsADVRpbUtDx7lbvVp6 PutKXyM9H3hfoRpYLwEaqFR1AStueqS46PRxjwsOnRvAOyNAAzVaVxqLR1/wfdJzXHIK6Rl4hwRo oGJRRzCLFdzzWtOzaA1USIAGKhEHXtd03dcfLC66gvWm5/VMogJwPgupABU58LRZrO6aTnxy4Zmk Z4BVUIEGanFwroZVprBYxwHvkp7Lg9KzeA2slAANVGNvjrXVBqw7pOeLqs/3GaDRYdWegXdJgAYq tYoEFo+4sLul50vKz9IzgAANVGK/V2NFy6gMl7GSzo2lB16eni+74KPpOfdeAKyTAA1Ubi3VzLjX Me9Rfr4+PcfyQVB7Bt4KARqoU+z8/YqXUNaWnu+wcZyx083Ss5QNrJwADdRlheEq1nTMM6YliaVn iTN2uiY9R7fNir9kgBHzQAMVibPffMXrud1h4w7X8/j0fMZTkBERJUpE+6J5o+2FlqaB1VGBBmox O+OF9Ly7Y5x1yXG7Oz451XSc+LipT7fR+dUXxgE4TYAG6vWa6TnWdUdx5f5HDhvXXHDEWbs3mzUp ukRp/hSkgbUSoAGWirsf9r5t1Tds3jh+gPPSc/PbyKR5Y8WL5AAI0EA1HrJmyRkXscL0fI/mjeun 3YgFpeuhB7rfVYQG1stDhABnWmeiu+OkdUeD+Q3Tc5eY20J0+9pyKsBqqUAD1Yo3c7KLy8/nFZaX NUifs3Xc5mZLP8Ndn5uje4pQDzSwXirQQO3i8cePOx0/7nDj8fC7P1Z+nu8M6YvPXaAWnYFVU4EG 6hdVHvqGx4+bnehk88bt0vPubjFMaXeyBwTgValAA7WIuefKokTe63QPuKPLT7io/HzD5o3jB1gS e0eTcIwq0MPf6tDAagnQQDXiTZ0qHrVvXLjZ4vLzkk+ny8VEN2Nen6G1QANrJkADjMXrnCUu3zeO bXjDKfFO5eNjFeMj6blZsjuG6nVXgDYLB7BaAjRQtyZ/3e5g67/de9xKXLvB8vQ8+iFGjw+WIVcr QQNrJUADdYiLPrrF4e9/K3Gn617cvHGg/Hz6wcELrmESufu259K1cvhvPLBiAjRQs9vUn+OOW99y 70Xl5xu2Pt/sZKPmjcnkfZGxl5sjbvqPCwA3JEADtbsmZ8XDL/XiS7j3dNSHjnan1ufDhxhStDI0 sFICNPA+xZs94y3Lz3HFPZ1sfd7fI1bwNQGcZiEVoDrXr623mvQc97jlS9JzXHpTS2/scMH6+usB eBAVaKAS0QffrmGj/TvzlkvxrfHOr373svOcbt4494Lj9D4iM1ARARqowiheDQ3Pmf2Pt4+T97n4 xVcXtznX0c3mKslnpeeFd3CXejvA4wnQQE3yYPl5tSvXPXL9xLjRJV0T7Q+2Pi+8OCkaWC890EBV Mks2sTmzrUDniuc6u7JjIa7a+7xdl69YEhdc18LWZ+kZWDUVaKA6bW5ufyj5Rhd9Xhgib7b2SJzz 6Y2aN2JuEsK4eAwAHkOABmoy6nou2Td0rDRmPfKBuQubN/bKz9c8jXmoeSMONnvEnUcF4D4EaKAu fe9zDn+vMXnF/Xa/+5IqR8588NnBa7pNxlVoKRqogAANVKYrPI8aOXJtqSsu/vDMLS7a/srycyz4 6MzmjSPHEaSBFfMQIVCLKE3BuX9ycHiGcKVV6AcNy12mwzt4jCUHOrd5A6AuKtBAdXI0+0aubxqO uOvut3xU8O7l57MvJe9zkwD3oQIN1GWSnjNz/FjhCsSVny8+3W3Kz2ek5zPLz8ufHbzzEAHcngAN 1GQnPY8y9NsQtZ0qFr9/7swbq10ZB0CABirRhal+8o3hQcLVVKDj3rvvhs9Ly89Lpo87Un4+9kZc Nj5LppkGeC0CNFCZ7qnB0leg1xGg4yab3PJ0Rza7b0CNJVNFP3K2bIDbEKCBSkQp/bR1w+ODK3mI MFZwhMvOdPPy87lNHYIzUC8BGqjLKDRPwvS7sviBvgNvx6VnieVnPXMBGOkZqIAADdSn639eSQU6 rt7qYTM53+0OT5afFzVveIQQWDcBGqjFgUBVRXq+5RGuKj/HovLzmR9d/+zgrccU4K4EaKBy0tad xzYWbX3GJ4sXNARYGQEaqF68Whi7PlvGfc54i+7nMz8aNW+cXX6O6+8Q4BUJ0EDF3k/Yilvcdtxx 68OHOD7rx6lfLeRpYIUEaKAeXZiKm8TJS+XNzvvY8vO5GxwZ3KXl5zPPfpPGaYDHEaCBiuwHuFjL ldxo25Vc8nlTzp1xiONrJx7shhafgVUToIFK1T7R2aXl57jwsOftH/e/kRl5+0MC3JEADdQojv74 4LO/uVGdydonysTzvR1nlJ+tpQLUSIAGahFtKOvaNl6pfSNe4yBXdz/f65G8uP3u8jOwegI0UIE4 8LqyS7/+GPG4Cz2j/HwolZ9ffr7/2AHcgQANcL5ay88L1i55QGo1Qx1QOQEaqIrQtYYRv7L8DFA5 ARqoxIHnBh8YzuosP5+1wZHHB299tcrPQP0EaKAiw3ODr5CfR/J17v6Bex3Z+eSqKbcpP0vYwHoJ 0EAd5loF4jXPf8lOr1N+jtvP/Ty7Z5x98Ic8FQlwNwI0UKN3lLvi4We6qo/jNlk9BGtgzQRooB5t 80Bc3ap7yYlXcO/32CuWH/D8XeL4PM+TT1+nLQbgEgI0ULOaCpXrfHzwVvcTtx8AgLUSoIFaHGmc jcect+5RO/7hOe3aix8fPOdLNMcdUB8BGuASCzsOqik/367xOS4+bhTlamDVBGigNvu10gcucP2Y XW9zqLj5+Y7OnnFJv/XR706GBtZKgAYqsl/UFLJuMZixbPMzPpg+Phinv0iAigjQQDX21iKMx57w YcdZ5+ODcevd5WagVgI0UJU2NYfFOM4brWWfxHnDOVO7jvNOu/Oxbw6okwAN1CXOjnnXn2jl43D8 87jljcYVFzffaTNzxKxp/IF3TYAG6vaKa9adNxHHVf0bD2/zjqvv4gbBPS8cOoAHEaAB3pu40c5n Lgi5394hGQN1E6CBSsSSNturT7ay4yw9bNz0oHH5cURl4C0SoIGaxJnvvaX7u+thzkm7cf678eAb BXgVAjRQj9h/Efc8zSsf4z6XEI85TffR8v6NLAArJ0ADFYkDP75aXF1l2Lvj9M9xasu43SF1SwOr JUADlVr/OoS3WD8lrj/sdVcb19zatYunhMUmgVUSoIH63HMNwrcd1w4uoR23ON7xj+KSo4f8DKyQ AA3UYZgyLc6cPe29j9Rjj3XZ44PdDzm/ZYTvGFgjARrgKgfaoGuawG7hXnHeB1f3b9xxGAGuIkAD 9OJNnzqu3COuON5F8w+GHmhgnQRooCrXt+1ywVgv3fLQs4+LK92+ZGCNBGigFoeWIpSxLhqUCwcw brrZsF3OfuN6oIFVEqCByuy2FawxYkVVh73NcePWmzcla9NwACskQAMVObCQStzj4Avk65367CPF jS/qSAF75o1LZ8mTn4FVEqCBSsXkr7d8i6s495IW5nPXZDlxOOkZWCsBGqiRYHWrMYlXvtSd8+ek nB/NWioAKyNAA1XoC6Dt6nTT+vN7yFixyoOd8wVcOHd1lN0HRwFWQoAGarLaPJWXX+MKZ4C+4pLi wGzRccmh9HAA6yRAA5WIio/+Jkb7VlNwH0rU8xPZKUIDKyRAAxWTra4bidcev92lUnInRgvPwDo9 GwKgMtGlrPaFlHXtcF66TVz0zknZ7Rmx1om+gXdOBRqoRZz95uvIR9/7mVutoCf79KqH+biLAbia AA1UZKd9dpSu8t2NxauM/InPls70LB8DdRKggUqtM3t1V5Urvosr5/6LG2y60/ycywYN4JUJ0EBV 1j3xc67+gDf/Jo6+c8X9CtPAignQQF2iX1TlHS2icnpMVn2848f1BQLVEaAB3rCbPEEY97kEyRmo lQAN1CHuGLhWnuQqCZqx5LKFZ6BmAjRQmZVHr0p6d2Pl505d0MCKCdBAhWJ4YaGNV/0Cjryz89ap r0leBuohQAP1OBjSKs3QdVx2HL3keNP3DjBLgAaqFP0fRqLu4w/MYQfUQoAGKhIHXq9LtfEvbn8o v+MAb5EADdSkppmEXz9HrzW9StVA5QRooDb9MtA3y2F5wyt7E8O7dItYuIsEDdRNgAbqMpkPehLE 1jTz2e0uJO5wT7HyQ+Y9BhLgdgRo4G0xgfBxr138jUPf2sxrXySwUgI08BaJXm/iG/M1AuskQANV 2W9+jgM1VeHrVsP9oL0AqiFAA3Va/XrQtQX4eKXDhd90gOoI0EDVzshprxjQZMOZ7ygOD1YaM6AK AjRQh/1cFedXOd9sKIuHn23JHHZx/iV331DKz0AFBGigHpN0tTA7vkYwy5Udp5avWRkaWDkBGqhC lhzH54tWiq4ulV11wbU/ySdDA+slQAN1yK4wOddHEDc4/FsbrgqvVmYGKiFAA5UYatDTWewWHuS+ l7j/1upC4aor0/m4LwvgcgI0UIc8nKfWlKGJu20MsBYCNFCBLKVk5q3KuTJ0HV85wEoJ0ECVRp3Q US6IWw/MZ7mag1wwxo87Zr76/QKcS4AG6pCZbUPxFS3Qx89gkO9gwReUvhegEgI0UIvM22aphwWz VSXAKuJoVnOlwPskQAN1mFvlOeIGB33Uxb9Nd34KUIgGVkmABiqROxXo3eh2YdZaeUR79wlShAZW SIAGqpC7E9nF3otuDei86iyVD9Lym9nvK3+VKx++3fEr+RlYJQEaqEOOMlacCnzLkvRDQlqu4Air P6+4DNRBgAZqkRcs63dujM67X/ubcL9CdS79xgBekQANVGKIVXsxLk7v6nHBWr7l8QwcRhNYJwEa qENePY1dnvVx3vMWMFrAWyBAA/WYZqookwUJzzxAnn38Fd51ruZKbrqtsAxURoAGKnRdL+7rxLWs 5JyvGGblaKASAjRQtRj9ucDBUvSdM1w+8mR1fHeHR0SeBtZKgAbqdaeFCN9dcLumuTxvdxHv+0sA aiJAA3W7MkTnWW/dSF5w+Dz6c15y8TVkU/kZWDMBGqhHTH+40azEt87QbzD75UNu7VWaagAuIEAD XFbIfc3ru9M+a7nJtlRvURVgpQRooEZx8zXx8sTP9zxXeSPnOufc85PytWtMpscsgSoI0EBF4q5H f0SGzlc/xkoz6XBZmWIzsHICNMBgPYuWvN6Nr+RypGhgvQRooHK3rkrfYiriPHuLO8TEXMuB3kXn NvAuCdBAHWLu55j75HqvMdnEHa8pb7jDXJtLLjrHqUlP8mFfBMClBGigFvHIk+X0j7ud4hX2vWz/ u2bZfMA5AG5HgAaqdsdUnTOvXsU7ypUiNFAFARqo191r0lescZ0Xf3jLE1Uk3+ydAW+PAA1Uoll5 8LVCVd7vqHnZNeStr/ZhQ5sHvl+AWgjQQM3un7reRhn01X7vOG9O5+j+ivEC7e0vTArRwOoI0ED1 7pyi8y6PuN1xHru9c5z14en6dl54pjO+wGiSc7Qhun0NsFICNFCpeGTCuihDr7Z0ep+lDM8ao8Of jmrPw1er+gyskgANvAH3ztLLZjq+5OhnbpJLd7zbldz0NBFt7Tm68nMoQAMrJkADLJH3ONQj1iNc VTF3PkK3r9q//XcNWC0BGqjbKzRyrE7WfscRpRTlZ6AaAjRQkTjy052NOnxz8V43267ctItjebty Hh+Z2cOcnm8vuvQ8Lj+/5qSFAMcJ0EDtmsz1uKxV1SooufRs+fDLjihdet5J0grRwEoJ0EAtxlMz 5Kh4+TA5+/IOR7/o81vsce97OPrtjqeuMw0HsGoCNFCPWPj+3dxhVo587J5522tYfK7pIukRUYYi tPIzsHYCNFC5IWg9tFqZt9rwgrp2XnE597zxQ4vDnNG2PU7PMZkUGmB9BGjgLbn3ys/TluIK+wvy xM/T9+Yr7Te/7Zi2QZfSLUiogwNYJwEaeHtqi115twM8aIK7U1X005cRprEDKiJAAzXZSWJx7ob3 uoS85aQVJzurL3uKcb2zV2d/ed3cGyW6Fo6iCxpYLwEaeKvyMdlxJY0cuXjL2Y7lPOdoufyjYweM Li/H6KUqNLBiAjTwtuUDjpk3PWTe9k7ztvd6n6NERESXnrsXJVITNLBKAjTw5uUKzpC3v9TXzJZ5 6gLy6BuTHyaTbswUnmVoYHUEaOA9yHsf8FFF6LzoJq+82mXT5uXNfgsQnYGVEqCBOgz/xD95t5z9 rNmd01jV3QZ5/XhdVITfL2TXODUg8P4I0EAVbvJI2W3DWd51+4um91jaBn3enHMPeRRz/j1N0MAq CdBALaLE9Wt53zOPXZ/2zloiPG9ye3mD21006Uae32KS4zclaGB9BGigDreb1uyGiWymWHvDpt5X X5r8aFf2yRyfZx0wVzQGAGcSoIFqtBk6p/8p3ZsL3DeW5SN3PrPh4sre4rznfedNLxXg/gRooBYx 26oxvJXrWJ/vpvNx5D1Pf3guulxwhLzF1R34NUCUBtZJgAYqcf5kG/nI5JUL3j3+yYJNXvv2ztnx QAeHTAy8Ac+GAKhClLlp7I443WSb3ZHnz3f2u7Pl0zh8kDx+jlIm8fP0zBqT48XcHtEec3LCiJki dL9F9kubtHfTXlKMj1ii/Z/RXjE6YbbXNMw2mCVLtut058FByBtNuwJwHwI0UI8jgbOLgsNTfDmu d+Y0KuY0CI5fxdw54+Ank6mox1u0p4+Zhx+HaLp/3O4OMrP9q/uzfTneogz3NL6YnTOOL6E/dZn+ NjL+efz3eNeYHZD9RQRjOGA7cUoMf0ZEKRnZX1aXuLMP38MXpFoNrJQADdRiYU0yYlTHjRJZsq+C TtdfmVuN5dLc3Jz5SGjey6l7251aBbv5VSDHP5VofyVokvU0+ubojexrx0MhuP05ugA7bNMftj3j +TOh3Kp+7IFCYJUEaKASJxYdjCYYR8ZQhI6IrgydR6PrkrhcliXmUsqBFRSP3cj0RTTpNTKb0NtV azMP1ov3rqu7kd1h3Ks9x94lD/ucVXge7bNTfl5CcgZWTIAGKtCEr7MyWJuhSxvBokzS79DWEUem 9DgRlw9eynxOjovvuUvNXTW9zdAlMkqfpnd3O6NhYyfPTlop+g1KORqsJwMbuxX2UXwenS36o/bv +O82UCMBGqhDdNPY5Tmbdo/x7T4kt1d/nevC2PvhRPF7Zq+xuSfijj4lF6VkW3VuQnTJbJN0U1Rv e4hL6XocymCSnwAAA+xJREFUYu7694vNu9n6WLG5XJqbxxvNp+cyex3TJuhRP7taNLA6AjTwZoz6 h/cz4LG9pj8c6Gw+ZXFOPvOG+j+a7o3Mpp7cdzZPHyLcz/oni81lLzfPN2zHzmnK0dw8PXfEzMju /yNAzv0qo0oNrI4ADVQiFm2U5+x5cgqOG8jSzPMWS260Kytn9uXo0ndxlK4UXaaJcxKID4Tmcrhp OvbbnNtjjQ67v+k0XM9E5zLN58eboXPnS1F9BlZJgAZqETGZWKN5r3uRkxnr+n/6325fSubQ+5zd NnsHn31ZDvRK91d04CiHjjbbMHLg+DuXPL/NuIFjKEXHZG67nN5FjqJuTufUG22zX8reqQbH/v3M drtkmc4oeHxejVG/R+R2u/jRQ4CHEKCBCsQmfuXf+OTzb760P+5tMIppOX6xfdnmdjtMnVxKl7UP lKhj7q/+5W7JerpiymRV8Z2QPM64OwfOvRC9M8FFlGOTesxOgjH9aH/mjYP7xHyDxaRrOeZHaOb5 xWl6zpwsbjOetHuYjy9G80dvnp42n33NirnA6kSaZRNYvczy1cdtbo+s4Xfw/5TlQ/sA4mYbPVS8 /sUdWJfwaRPPz+rQwLoI0AAAsIB/GgMAgAUEaAAAWECABgCABQRoAABYQIAGAIAFBGgAAFhAgAYA gAUEaAAAWECABgCABQRoAABYQIAGAIAFBGgAAFhAgAYAgAUEaAAAWECABgCABQRoAABYQIAGAIAF BGgAAFhAgAYAgAUEaAAAWECABgCABQRoAABYQIAGAIAFBGgAAFhAgAYAgAUEaAAAWECABgCABQRo AABYQIAGAIAFBGgAAFhAgAYAgAUEaAAAWECABgCABQRoAABYQIAGAIAFBGgAAFhAgAYAgAUEaAAA WECABgCABQRoAABYQIAGAIAFBGgAAFhAgAYAgAUEaAAAWECABgCABQRoAABYQIAGAIAFBGgAAFhA gAYAgAUEaAAAWECABgCABQRoAABYQIAGAIAFBGgAAFhAgAYAgAUEaAAAWECABgCABQRoAABYQIAG AIAFBGgAAFhAgAYAgAUEaAAAWECABgCABQRoAABYQIAGAIAFBGgAAFhAgAYAgAUEaAAAWECABgCA BQRoAABYQIAGAIAFBGgAAFhAgAYAgAUEaAAAWECABgCABQRoAABYQIAGAIAFBGgAAFhAgAYAgAUE aAAAWECABgCABQRoAABYQIAGAIAFBGgAAFhAgAYAgAUEaAAAWECABgCABQRoAABYQIAGAIAFBGgA AFhAgAYAgAUEaAAAWECABgCABQRoAABYQIAGAIAFBGgAAFhAgAYAgAUEaAAAWOD/B31QS24jrvTK AAAAAElFTkSuQmCC "
       id="image95"
       x="-238.32541"
       y="-14.232574" />
  </g>
  <g
     inkscape:label="Layer 1"
     inkscape:groupmode="layer"
     id="layer1"
     transform="translate(-36.171514,-20.400381)">
    <g
       id="g1790"
       transform="matrix(0,-0.55022148,0.54319749,0,26.27004,109.3658)">
      <path
         style="fill:#333333;stroke-width:0.659541"
         id="rect1564"
         width="118.13425"
         height="277.98361"
         x="43.55595"
         y="18.228128"
         inkscape:path-effect="#path-effect1780"
         d="M 45.672617,18.228128 H 159.57353 a 2.1166667,2.1166667 45 0 1 2.11667,2.116667 V 294.09507 a 2.1166667,2.1166667 135 0 1 -2.11667,2.11667 H 45.672617 A 2.1166667,2.1166667 45 0 1 43.55595,294.09507 V 20.344795 a 2.1166667,2.1166667 135 0 1 2.116667,-2.116667 z"
         sodipodi:type="rect" />
      <g
         id="g1540"
         transform="translate(-0.12048817)">
        <g
           id="g1086">
          <rect
             style="fill:#ff0000;stroke-width:0.264583"
             id="rect1002"
             width="24.508257"
             height="25.68988"
             x="50.468277"
             y="25.2286" />
          <path
             id="rect31"
             style="opacity:0.95;fill:#cccccc;fill-rule:evenodd;stroke-width:0.195389;stroke-miterlimit:4;stroke-dasharray:none"
             d="m 56.236905,43.270793 v 4.395523 h 1.428589 c -6.68e-4,0.02402 -0.0018,0.04789 -0.0018,0.0721 v 10.978178 c 0,1.344427 1.06481,2.426863 2.387346,2.426863 h 5.342771 c 1.322535,0 2.387346,-1.082436 2.387346,-2.426863 V 47.738415 c 0,-0.02421 -0.0011,-0.04807 -0.0018,-0.0721 h 1.428548 v -4.395523 z m 4.723512,8.786861 h 3.523997 v 6.818031 h -3.523997 z" />
        </g>
        <g
           id="g1532">
          <rect
             style="fill:#000000;stroke-width:0.264583"
             id="rect1002-7"
             width="24.508257"
             height="25.68988"
             x="130.51059"
             y="25.2286" />
          <path
             id="rect31-8"
             style="opacity:0.95;fill:#cccccc;fill-rule:evenodd;stroke-width:0.195389;stroke-miterlimit:4;stroke-dasharray:none"
             d="m 136.27922,43.270793 v 4.395523 h 1.42859 c -6.7e-4,0.02402 -0.002,0.04789 -0.002,0.0721 v 10.978178 c 0,1.344427 1.06481,2.426863 2.38734,2.426863 h 5.34278 c 1.32253,0 2.38734,-1.082436 2.38734,-2.426863 V 47.738415 c 0,-0.02421 -0.001,-0.04807 -0.002,-0.0721 h 1.42855 v -4.395523 z m 4.72351,8.786861 h 3.524 v 6.818031 h -3.524 z" />
        </g>
      </g>
    </g>
    <text
       fill="#e6e6e6"
       font-family="ocra10"
       font-size="21.3774px"
       id="text2931"
       x="77.672768"
       y="58.966892"
       style="font-style:normal;font-variant:normal;font-weight:normal;font-stretch:normal;font-size:21.3774px;font-family:OCRA;-inkscape-font-specification:'OCRA, Normal';font-variant-ligatures:normal;font-variant-caps:normal;font-variant-numeric:normal;font-variant-east-asian:normal;fill:#e6e6e6;stroke-width:4.27546"
       transform="scale(0.95625213,1.0457493)">12V7Ah</text>
  </g>
</svg>
